Experiment1
…
[1] 116

dup_rows <- decode  %>%
  group_by(nCrittersGame, mleGame) %>%
  filter(n() > 1) %>%
  count(designatedGame) %>%
  filter (n==1)

duplicated_rows <-decode %>%
  filter(designatedGame %in% dup_rows$designatedGame)

# Print the rows
print(dup_rows)

# A tibble: 107 × 4
# Groups:   nCrittersGame, mleGame [24]
   nCrittersGame mleGame designatedGame     n
           <int>   <dbl> <chr>          <int>
 1            15   0.733 16424              1
 2            15   0.733 24638              1
 3            16   0.75  10079              1
 4            16   0.75  1311               1
 5            16   0.75  22300              1
 6            16   0.75  7680               1
 7            16   0.75  8743               1
 8            17   0.706 1010               1
 9            17   0.706 10605              1
10            17   0.706 16002              1
# ℹ 97 more rows
…
